Khaled
2
12-12-2010
24
233
Doctor Appointment
From 6:7 at Maadi
2
04-04-2011
2
Relaxing
sleeping forever.
2
03-09-2016
3
Weekend
Watching EL Clasico with friends.
4
05-05-2012
3
Files Organization Assignment 1
Indexing
3
14-06-2015
4
